10 44
0 6 58
6 0 58
0 1 8
1 0 8
0 2 7
2 0 7
0 9 1
9 0 1
0 5 23
5 0 23
1 8 22
8 1 22
1 4 47
4 1 47
1 7 36
7 1 36
2 9 8
9 2 8
2 3 60
3 2 60
2 6 8
6 2 8
2 8 59
8 2 59
3 9 5
9 3 5
3 6 50
6 3 50
3 7 27
7 3 27
4 8 18
8 4 18
4 9 64
9 4 64
5 8 18
8 5 18
5 7 61
7 5 61
6 9 63
9 6 63
7 8 12
8 7 12
8 9 19
9 8 19
2
